prelims.csv

Record Length,2500,Points,-5.00000035E-3,2.0400000,,Record Length,2500,Points,-5.00000035E-3,1.4399999,
Sample Interval,3.99999999E-6,s,-4.99600032E-3,2.0400000,,Sample Interval,3.99999999E-6,s,-4.99600032E-3,1.4800000,
Trigger Point,1.2500002E3,Samples,-4.99200029E-3,2.0000000,,Trigger Point,1.2500002E3,Samples,-4.99200029E-3,1.4399999,
,,,-4.98800026E-3,2.0400000,,,,,-4.98800026E-3,1.5200000,
,,,-4.98400023E-3,2.0400000,,,,,-4.98400023E-3,1.4800000,
,,,-4.98000020E-3,2.0799999,,,,,-4.98000020E-3,1.5200000,
Source,CH1,,-4.97600017E-3,2.0400000,,Source,CH2,,-4.97600017E-3,1.4800000,
Vertical Units,Volts,,-4.97200014E-3,2.0400000,,Vertical Units,Volts,,-4.97200014E-3,1.5200000,
Vertical Scale,999.999977648E-3,,-4.96800058E-3,2.0400000,,Vertical Scale,999.999977648E-3,,-4.96800058E-3,1.4800000,
Vertical Offset,0,,-4.96400055E-3,2.0400000,,Vertical Offset,0,,-4.96400055E-3,1.5200000,
Horizontal Units,s,,-4.96000051E-3,2.0400000,,Horizontal Units,s,,-4.96000051E-3,1.5200000,
Horizontal Scale,1.000000E-3,,-4.95600048E-3,2.0799999,,Horizontal Scale,1.000000E-3,,-4.95600048E-3,1.5599999,
Pt Fmt,Y,,-4.95200045E-3,2.0000000,,Pt Fmt,Y,,-4.95200045E-3,1.5200000,
Yzero,40.00000000E-3,,-4.94800042E-3,2.0400000,,Yzero,40.00000000E-3,,-4.94800042E-3,1.5999999,
Probe Atten,1.000000,,-4.94400039E-3,2.0400000,,Probe Atten,1.000000,,-4.94400039E-3,1.5200000,
,,,-4.94000036E-3,2.0799999,,,,,-4.94000036E-3,1.5599999,
Note,TBS 1062 - 11:58:29   07/02/2020,,-4.93600033E-3,2.0400000,,Note,TBS 1062 - 11:58:29   07/02/2020,,-4.93600033E-3,1.5200000,
,,,-4.93200030E-3,2.0400000,,,,,-4.93200030E-3,1.5999999,
,,,-4.92800027E-3,2.0400000,,,,,-4.92800027E-3,1.5599999,
,,,-4.92400024E-3,2.0400000,,,,,-4.92400024E-3,1.5599999,
,,,-4.92000021E-3,2.0400000,,,,,-4.92000021E-3,1.5200000,
,,,-4.91600018E-3,2.0400000,,,,,-4.91600018E-3,1.5999999,
,,,-4.91200015E-3,2.0000000,,,,,-4.91200015E-3,1.5599999,
,,,-4.90800058E-3,2.0400000,,,,,-4.90800058E-3,1.5999999,
,,,-4.90400055E-3,2.0400000,,,,,-4.90400055E-3,1.5599999,
,,,-4.90000052E-3,2.0400000,,,,,-4.90000052E-3,1.5999999,
,,,-4.89600049E-3,2.0400000,,,,,-4.89600049E-3,1.5599999,
,,,-4.89200046E-3,2.0400000,,,,,-4.89200046E-3,1.5999999,
,,,-4.88800043E-3,2.0400000,,,,,-4.88800043E-3,1.5599999,
,,,-4.88400040E-3,2.0400000,,,,,-4.88400040E-3,1.5999999,
,,,-4.88000037E-3,2.0400000,,,,,-4.88000037E-3,1.5999999,
,,,-4.87600034E-3,2.0400000,,,,,-4.87600034E-3,1.5999999,
,,,-4.87200031E-3,2.0000000,,,,,-4.87200031E-3,1.5999999,
,,,-4.86800028E-3,2.0400000,,,,,-4.86800028E-3,1.6400000,
,,,-4.86400025E-3,2.0400000,,,,,-4.86400025E-3,1.5999999,
,,,-4.86000022E-3,2.0400000,,,,,-4.86000022E-3,1.6400000,
,,,-4.85600019E-3,2.0799999,,,,,-4.85600019E-3,1.5999999,
,,,-4.85200016E-3,2.0400000,,,,,-4.85200016E-3,1.6799999,
,,,-4.84800013E-3,2.0000000,,,,,-4.84800013E-3,1.6400000,
,,,-4.84400056E-3,2.0400000,,,,,-4.84400056E-3,1.6400000,
,,,-4.84000053E-3,2.0000000,,,,,-4.84000053E-3,1.5999999,
,,,-4.83600050E-3,2.0400000,,,,,-4.83600050E-3,1.6799999,
,,,-4.83200047E-3,2.0400000,,,,,-4.83200047E-3,1.5999999,
,,,-4.82800044E-3,2.0400000,,,,,-4.82800044E-3,1.6799999,
,,,-4.82400041E-3,2.0400000,,,,,-4.82400041E-3,1.5999999,
,,,-4.82000038E-3,2.0400000,,,,,-4.82000038E-3,1.6400000,
,,,-4.81600035E-3,2.0000000,,,,,-4.81600035E-3,1.6400000,
,,,-4.81200032E-3,2.0400000,,,,,-4.81200032E-3,1.7199999,
,,,-4.80800029E-3,2.0400000,,,,,-4.80800029E-3,1.6400000,
,,,-4.80400026E-3,2.0000000,,,,,-4.80400026E-3,1.7199999,
,,,-4.80000023E-3,2.0000000,,,,,-4.80000023E-3,1.6400000,
,,,-4.79600020E-3,2.0400000,,,,,-4.79600020E-3,1.6400000,
,,,-4.79200017E-3,2.0400000,,,,,-4.79200017E-3,1.6799999,
,,,-4.78800014E-3,2.0799999,,,,,-4.78800014E-3,1.7199999,
,,,-4.78400057E-3,2.0400000,,,,,-4.78400057E-3,1.6400000,
,,,-4.78000054E-3,2.0400000,,,,,-4.78000054E-3,1.7199999,
,,,-4.77600051E-3,2.0400000,,,,,-4.77600051E-3,1.6400000,
,,,-4.77200048E-3,2.0400000,,,,,-4.77200048E-3,1.7199999,
,,,-4.76800045E-3,2.0400000,,,,,-4.76800045E-3,1.6799999,
,,,-4.76400042E-3,2.0799999,,,,,-4.76400042E-3,1.7199999,
,,,-4.76000039E-3,2.0400000,,,,,-4.76000039E-3,1.6799999,
,,,-4.75600036E-3,2.0400000,,,,,-4.75600036E-3,1.7199999,
,,,-4.75200033E-3,2.0400000,,,,,-4.75200033E-3,1.6799999,
,,,-4.74800030E-3,2.0400000,,,,,-4.74800030E-3,1.7199999,
,,,-4.74400027E-3,2.0400000,,,,,-4.74400027E-3,1.7199999,
,,,-4.74000024E-3,2.0400000,,,,,-4.74000024E-3,1.7600000,
,,,-4.73600021E-3,2.0400000,,,,,-4.73600021E-3,1.6799999,
,,,-4.73200018E-3,2.0400000,,,,,-4.73200018E-3,1.8000000,
,,,-4.72800015E-3,2.0000000,,,,,-4.72800015E-3,1.6799999,
,,,-4.72400058E-3,2.0400000,,,,,-4.72400058E-3,1.7600000,
,,,-4.72000055E-3,2.0400000,,,,,-4.72000055E-3,1.7199999,
,,,-4.71600052E-3,2.0400000,,,,,-4.71600052E-3,1.7600000,
,,,-4.71200049E-3,2.0400000,,,,,-4.71200049E-3,1.6799999,
,,,-4.70800046E-3,2.0400000,,,,,-4.70800046E-3,1.7600000,
,,,-4.70400043E-3,2.0400000,,,,,-4.70400043E-3,1.7199999,
,,,-4.70000040E-3,2.0799999,,,,,-4.70000040E-3,1.7600000,
,,,-4.69600037E-3,2.0400000,,,,,-4.69600037E-3,1.7199999,
,,,-4.69200034E-3,2.0400000,,,,,-4.69200034E-3,1.8000000,
,,,-4.68800031E-3,2.0799999,,,,,-4.68800031E-3,1.7199999,
,,,-4.68400028E-3,2.0400000,,,,,-4.68400028E-3,1.8399999,
,,,-4.68000025E-3,2.0400000,,,,,-4.68000025E-3,1.7199999,
,,,-4.67600022E-3,2.0799999,,,,,-4.67600022E-3,1.7600000,
,,,-4.67200018E-3,2.0400000,,,,,-4.67200018E-3,1.7600000,
,,,-4.66800015E-3,2.0799999,,,,,-4.66800015E-3,1.8000000,
,,,-4.66400012E-3,2.0799999,,,,,-4.66400012E-3,1.7199999,
,,,-4.66000056E-3,2.0799999,,,,,-4.66000056E-3,1.8000000,
,,,-4.65600053E-3,2.0000000,,,,,-4.65600053E-3,1.7600000,
,,,-4.65200050E-3,2.0400000,,,,,-4.65200050E-3,1.8000000,
,,,-4.64800047E-3,2.0400000,,,,,-4.64800047E-3,1.7600000,
,,,-4.64400044E-3,2.0799999,,,,,-4.64400044E-3,1.8000000,
,,,-4.64000041E-3,2.0400000,,,,,-4.64000041E-3,1.7199999,
,,,-4.63600038E-3,2.0400000,,,,,-4.63600038E-3,1.8000000,
,,,-4.63200035E-3,2.0000000,,,,,-4.63200035E-3,1.7600000,
,,,-4.62800032E-3,2.0400000,,,,,-4.62800032E-3,1.7600000,
,,,-4.62400028E-3,2.0000000,,,,,-4.62400028E-3,1.7600000,
,,,-4.62000025E-3,2.0400000,,,,,-4.62000025E-3,1.8399999,
,,,-4.61600022E-3,2.0400000,,,,,-4.61600022E-3,1.7199999,
,,,-4.61200019E-3,2.0400000,,,,,-4.61200019E-3,1.8000000,
,,,-4.60800016E-3,2.0400000,,,,,-4.60800016E-3,1.7600000,
,,,-4.60400013E-3,2.0400000,,,,,-4.60400013E-3,1.8000000,
,,,-4.60000057E-3,2.0400000,,,,,-4.60000057E-3,1.7600000,
,,,-4.59600054E-3,2.0400000,,,,,-4.59600054E-3,1.8399999,
,,,-4.59200051E-3,2.0400000,,,,,-4.59200051E-3,1.7600000,
,,,-4.58800048E-3,2.0400000,,,,,-4.58800048E-3,1.8399999,
,,,-4.58400045E-3,2.0000000,,,,,-4.58400045E-3,1.7600000,
,,,-4.58000042E-3,2.0400000,,,,,-4.58000042E-3,1.8000000,
,,,-4.57600038E-3,2.0000000,,,,,-4.57600038E-3,1.8000000,
,,,-4.57200035E-3,2.0400000,,,,,-4.57200035E-3,1.8399999,
,,,-4.56800032E-3,2.0400000,,,,,-4.56800032E-3,1.7600000,
,,,-4.56400029E-3,2.0400000,,,,,-4.56400029E-3,1.8399999,
,,,-4.56000026E-3,2.0000000,,,,,-4.56000026E-3,1.7600000,
,,,-4.55600023E-3,2.0400000,,,,,-4.55600023E-3,1.8399999,
,,,-4.55200020E-3,2.0400000,,,,,-4.55200020E-3,1.8000000,
,,,-4.54800017E-3,2.0799999,,,,,-4.54800017E-3,1.8800000,
,,,-4.54400014E-3,2.0400000,,,,,-4.54400014E-3,1.8000000,
,,,-4.54000058E-3,2.0400000,,,,,-4.54000058E-3,1.8800000,
,,,-4.53600055E-3,2.0400000,,,,,-4.53600055E-3,1.8000000,
,,,-4.53200052E-3,2.0400000,,,,,-4.53200052E-3,1.8399999,
,,,-4.52800049E-3,2.0400000,,,,,-4.52800049E-3,1.7600000,
,,,-4.52400045E-3,2.0400000,,,,,-4.52400045E-3,1.8399999,
,,,-4.52000042E-3,2.0400000,,,,,-4.52000042E-3,1.8000000,
,,,-4.51600039E-3,2.0400000,,,,,-4.51600039E-3,1.8800000,
,,,-4.51200036E-3,2.0000000,,,,,-4.51200036E-3,1.8000000,
,,,-4.50800033E-3,2.0400000,,,,,-4.50800033E-3,1.8399999,
,,,-4.50400030E-3,2.0400000,,,,,-4.50400030E-3,1.8399999,
,,,-4.50000027E-3,2.0400000,,,,,-4.50000027E-3,1.8800000,
,,,-4.49600024E-3,2.0400000,,,,,-4.49600024E-3,1.8000000,
,,,-4.49200021E-3,2.0400000,,,,,-4.49200021E-3,1.8800000,
,,,-4.48800018E-3,2.0000000,,,,,-4.48800018E-3,1.8000000,
,,,-4.48400015E-3,2.0799999,,,,,-4.48400015E-3,1.8800000,
,,,-4.48000059E-3,2.0000000,,,,,-4.48000059E-3,1.8000000,
,,,-4.47600055E-3,2.0400000,,,,,-4.47600055E-3,1.8800000,
,,,-4.47200052E-3,2.0400000,,,,,-4.47200052E-3,1.8000000,
,,,-4.46800049E-3,2.0400000,,,,,-4.46800049E-3,1.9200000,
,,,-4.46400046E-3,2.0000000,,,,,-4.46400046E-3,1.8000000,
,,,-4.46000043E-3,2.0400000,,,,,-4.46000043E-3,1.8800000,
,,,-4.45600040E-3,2.0400000,,,,,-4.45600040E-3,1.8399999,
,,,-4.45200037E-3,2.0400000,,,,,-4.45200037E-3,1.8800000,
,,,-4.44800034E-3,2.0799999,,,,,-4.44800034E-3,1.8399999,
,,,-4.44400031E-3,2.0400000,,,,,-4.44400031E-3,1.9200000,
,,,-4.44000028E-3,2.0400000,,,,,-4.44000028E-3,1.8399999,
,,,-4.43600025E-3,2.0799999,,,,,-4.43600025E-3,1.9200000,
,,,-4.43200022E-3,2.0400000,,,,,-4.43200022E-3,1.8399999,
,,,-4.42800019E-3,2.0400000,,,,,-4.42800019E-3,1.9200000,
,,,-4.42400016E-3,2.0400000,,,,,-4.42400016E-3,1.8399999,
,,,-4.42000013E-3,2.0799999,,,,,-4.42000013E-3,1.9200000,
,,,-4.41600056E-3,2.0000000,,,,,-4.41600056E-3,1.8399999,
,,,-4.41200053E-3,2.0400000,,,,,-4.41200053E-3,1.8800000,
,,,-4.40800050E-3,2.0400000,,,,,-4.40800050E-3,1.8399999,
,,,-4.40400047E-3,2.0400000,,,,,-4.40400047E-3,1.9200000,
,,,-4.40000044E-3,2.0400000,,,,,-4.40000044E-3,1.8800000,
,,,-4.39600041E-3,2.0400000,,,,,-4.39600041E-3,1.9200000,
,,,-4.39200038E-3,2.0000000,,,,,-4.39200038E-3,1.8399999,
,,,-4.38800035E-3,2.0400000,,,,,-4.38800035E-3,1.9200000,
,,,-4.38400032E-3,2.0000000,,,,,-4.38400032E-3,1.8399999,
,,,-4.38000029E-3,2.0400000,,,,,-4.38000029E-3,1.9200000,
,,,-4.37600026E-3,2.0400000,,,,,-4.37600026E-3,1.8399999,
,,,-4.37200023E-3,2.0400000,,,,,-4.37200023E-3,1.9200000,
,,,-4.36800020E-3,2.0000000,,,,,-4.36800020E-3,1.8399999,
,,,-4.36400017E-3,2.0799999,,,,,-4.36400017E-3,1.9200000,
,,,-4.36000014E-3,2.0400000,,,,,-4.36000014E-3,1.8800000,
,,,-4.35600057E-3,2.0400000,,,,,-4.35600057E-3,1.9200000,
,,,-4.35200054E-3,2.0400000,,,,,-4.35200054E-3,1.8399999,
,,,-4.34800051E-3,2.0400000,,,,,-4.34800051E-3,1.9200000,
,,,-4.34400048E-3,2.0000000,,,,,-4.34400048E-3,1.8800000,
,,,-4.34000045E-3,2.0400000,,,,,-4.34000045E-3,1.9599999,
,,,-4.33600042E-3,2.0000000,,,,,-4.33600042E-3,1.8800000,
,,,-4.33200039E-3,2.0400000,,,,,-4.33200039E-3,1.9200000,
,,,-4.32800036E-3,2.0799999,,,,,-4.32800036E-3,1.8399999,
,,,-4.32400033E-3,2.0799999,,,,,-4.32400033E-3,1.9200000,
,,,-4.32000030E-3,2.0000000,,,,,-4.32000030E-3,1.8399999,
,,,-4.31600027E-3,2.0400000,,,,,-4.31600027E-3,1.9200000,
,,,-4.31200024E-3,2.0400000,,,,,-4.31200024E-3,1.8800000,
,,,-4.30800021E-3,2.0400000,,,,,-4.30800021E-3,1.9599999,
,,,-4.30400018E-3,2.0400000,,,,,-4.30400018E-3,1.8800000,
,,,-4.30000015E-3,2.0400000,,,,,-4.30000015E-3,1.9599999,
,,,-4.29600058E-3,2.0000000,,,,,-4.29600058E-3,1.8800000,
,,,-4.29200055E-3,2.0400000,,,,,-4.29200055E-3,1.9200000,
,,,-4.28800052E-3,2.0000000,,,,,-4.28800052E-3,1.8800000,
,,,-4.28400049E-3,2.0400000,,,,,-4.28400049E-3,2.0000000,
,,,-4.28000046E-3,2.0400000,,,,,-4.28000046E-3,1.8800000,
,,,-4.27600043E-3,2.0400000,,,,,-4.27600043E-3,1.9599999,
,,,-4.27200040E-3,2.0000000,,,,,-4.27200040E-3,1.8800000,
,,,-4.26800037E-3,2.0400000,,,,,-4.26800037E-3,1.9200000,
,,,-4.26400034E-3,2.0000000,,,,,-4.26400034E-3,1.8800000,
,,,-4.26000031E-3,2.0400000,,,,,-4.26000031E-3,1.9200000,
,,,-4.25600028E-3,2.0400000,,,,,-4.25600028E-3,1.8800000,
,,,-4.25200025E-3,2.0400000,,,,,-4.25200025E-3,2.0000000,
,,,-4.24800022E-3,2.0000000,,,,,-4.24800022E-3,1.8800000,
,,,-4.24400019E-3,2.0400000,,,,,-4.24400019E-3,1.9200000,
,,,-4.24000015E-3,2.0400000,,,,,-4.24000015E-3,1.9200000,
,,,-4.23600012E-3,2.0400000,,,,,-4.23600012E-3,1.9599999,
,,,-4.23200056E-3,2.0400000,,,,,-4.23200056E-3,1.8800000,
,,,-4.22800053E-3,2.0400000,,,,,-4.22800053E-3,1.9599999,
,,,-4.22400050E-3,2.0000000,,,,,-4.22400050E-3,1.9200000,
,,,-4.22000047E-3,2.0400000,,,,,-4.22000047E-3,1.9599999,
,,,-4.21600044E-3,2.0400000,,,,,-4.21600044E-3,1.9200000,
,,,-4.21200041E-3,2.0400000,,,,,-4.21200041E-3,2.0000000,
,,,-4.20800038E-3,2.0400000,,,,,-4.20800038E-3,1.8800000,
,,,-4.20400035E-3,2.0400000,,,,,-4.20400035E-3,2.0000000,
,,,-4.20000032E-3,2.0000000,,,,,-4.20000032E-3,1.8800000,
,,,-4.19600029E-3,2.0400000,,,,,-4.19600029E-3,1.9599999,
,,,-4.19200025E-3,2.0000000,,,,,-4.19200025E-3,1.9200000,
,,,-4.18800022E-3,2.0400000,,,,,-4.18800022E-3,2.0000000,
,,,-4.18400019E-3,2.0400000,,,,,-4.18400019E-3,1.8800000,
,,,-4.18000016E-3,2.0400000,,,,,-4.18000016E-3,1.9599999,
,,,-4.17600013E-3,2.0400000,,,,,-4.17600013E-3,1.9200000,
,,,-4.17200057E-3,2.0799999,,,,,-4.17200057E-3,1.9599999,
,,,-4.16800054E-3,2.0400000,,,,,-4.16800054E-3,1.8800000,
,,,-4.16400051E-3,2.0400000,,,,,-4.16400051E-3,1.9200000,
,,,-4.16000048E-3,2.0000000,,,,,-4.16000048E-3,1.8800000,
,,,-4.15600045E-3,2.0400000,,,,,-4.15600045E-3,2.0400000,
,,,-4.15200042E-3,2.0000000,,,,,-4.15200042E-3,1.9200000,
,,,-4.14800039E-3,2.0400000,,,,,-4.14800039E-3,1.9599999,
,,,-4.14400036E-3,2.0000000,,,,,-4.14400036E-3,1.8800000,
,,,-4.14000032E-3,2.0400000,,,,,-4.14000032E-3,2.0000000,
,,,-4.13600029E-3,2.0400000,,,,,-4.13600029E-3,1.9200000,
,,,-4.13200026E-3,2.0000000,,,,,-4.13200026E-3,2.0000000,
,,,-4.12800023E-3,2.0400000,,,,,-4.12800023E-3,1.9200000,
,,,-4.12400020E-3,2.0799999,,,,,-4.12400020E-3,1.9599999,
,,,-4.12000017E-3,2.0400000,,,,,-4.12000017E-3,1.9200000,
,,,-4.11600014E-3,2.0400000,,,,,-4.11600014E-3,2.0000000,
,,,-4.11200058E-3,2.0400000,,,,,-4.11200058E-3,1.9200000,
,,,-4.10800055E-3,2.0400000,,,,,-4.10800055E-3,2.0000000,
,,,-4.10400052E-3,2.0400000,,,,,-4.10400052E-3,1.9200000,
,,,-4.10000049E-3,2.0400000,,,,,-4.10000049E-3,2.0000000,
,,,-4.09600046E-3,2.0400000,,,,,-4.09600046E-3,1.9200000,
,,,-4.09200042E-3,2.0799999,,,,,-4.09200042E-3,2.0000000,
,,,-4.08800039E-3,2.0799999,,,,,-4.08800039E-3,1.9200000,
,,,-4.08400036E-3,2.0400000,,,,,-4.08400036E-3,2.0000000,
,,,-4.08000033E-3,2.0000000,,,,,-4.08000033E-3,1.9200000,
,,,-4.07600030E-3,2.0400000,,,,,-4.07600030E-3,2.0000000,
,,,-4.07200027E-3,2.0000000,,,,,-4.07200027E-3,1.9200000,
,,,-4.06800024E-3,2.0400000,,,,,-4.06800024E-3,2.0000000,
,,,-4.06400021E-3,2.0400000,,,,,-4.06400021E-3,1.9599999,
,,,-4.06000018E-3,2.0400000,,,,,-4.06000018E-3,2.0000000,
,,,-4.05600015E-3,2.0400000,,,,,-4.05600015E-3,1.9200000,
,,,-4.05200059E-3,2.0400000,,,,,-4.05200059E-3,1.9599999,
,,,-4.04800056E-3,2.0400000,,,,,-4.04800056E-3,1.9599999,
,,,-4.04400053E-3,2.0400000,,,,,-4.04400053E-3,2.0000000,
,,,-4.04000049E-3,2.0400000,,,,,-4.04000049E-3,1.9200000,
,,,-4.03600046E-3,2.0400000,,,,,-4.03600046E-3,2.0000000,
,,,-4.03200043E-3,2.0000000,,,,,-4.03200043E-3,1.9200000,
,,,-4.02800040E-3,2.0400000,,,,,-4.02800040E-3,1.9599999,
,,,-4.02400037E-3,2.0000000,,,,,-4.02400037E-3,1.9200000,
,,,-4.02000034E-3,2.0400000,,,,,-4.02000034E-3,2.0000000,
,,,-4.01600031E-3,2.0400000,,,,,-4.01600031E-3,1.9599999,
,,,-4.01200028E-3,2.0400000,,,,,-4.01200028E-3,2.0400000,
,,,-4.00800025E-3,2.0400000,,,,,-4.00800025E-3,1.9200000,
,,,-4.00400022E-3,2.0400000,,,,,-4.00400022E-3,1.9599999,
,,,-4.00000019E-3,2.0400000,,,,,-4.00000019E-3,1.9200000,
,,,-3.99600016E-3,2.0799999,,,,,-3.99600016E-3,2.0000000,
,,,-3.99200013E-3,2.0400000,,,,,-3.99200013E-3,1.9200000,
,,,-3.98800056E-3,2.0400000,,,,,-3.98800056E-3,2.0799999,
,,,-3.98400053E-3,2.0400000,,,,,-3.98400053E-3,1.9200000,
,,,-3.98000050E-3,2.0400000,,,,,-3.98000050E-3,2.0000000,
,,,-3.97600047E-3,2.0400000,,,,,-3.97600047E-3,1.9599999,
,,,-3.97200044E-3,2.0400000,,,,,-3.97200044E-3,2.0000000,
,,,-3.96800041E-3,2.0400000,,,,,-3.96800041E-3,1.9200000,
,,,-3.96400038E-3,2.0400000,,,,,-3.96400038E-3,2.0000000,
,,,-3.96000035E-3,2.0400000,,,,,-3.96000035E-3,1.9200000,
,,,-3.95600032E-3,2.0400000,,,,,-3.95600032E-3,1.9599999,
,,,-3.95200029E-3,2.0400000,,,,,-3.95200029E-3,1.9599999,
,,,-3.94800026E-3,2.0400000,,,,,-3.94800026E-3,2.0400000,
,,,-3.94400023E-3,2.0799999,,,,,-3.94400023E-3,1.9599999,
,,,-3.94000020E-3,2.0400000,,,,,-3.94000020E-3,2.0000000,
,,,-3.93600017E-3,2.0400000,,,,,-3.93600017E-3,1.9599999,
,,,-3.93200014E-3,2.0799999,,,,,-3.93200014E-3,2.0000000,
,,,-3.92800057E-3,2.0400000,,,,,-3.92800057E-3,1.9599999,
,,,-3.92400054E-3,2.0799999,,,,,-3.92400054E-3,2.0400000,
,,,-3.92000051E-3,2.0400000,,,,,-3.92000051E-3,1.9599999,
,,,-3.91600048E-3,2.0400000,,,,,-3.91600048E-3,2.0000000,
,,,-3.91200045E-3,2.0400000,,,,,-3.91200045E-3,1.9200000,
,,,-3.90800042E-3,2.0400000,,,,,-3.90800042E-3,2.0000000,
,,,-3.90400039E-3,2.0400000,,,,,-3.90400039E-3,1.9599999,
,,,-3.90000036E-3,2.0400000,,,,,-3.90000036E-3,2.0000000,
,,,-3.89600033E-3,2.0400000,,,,,-3.89600033E-3,1.9599999,
,,,-3.89200030E-3,2.0400000,,,,,-3.89200030E-3,2.0799999,
,,,-3.88800027E-3,2.0000000,,,,,-3.88800027E-3,1.9200000,
,,,-3.88400047E-3,2.0799999,,,,,-3.88400047E-3,2.0000000,
,,,-3.88000044E-3,2.0400000,,,,,-3.88000044E-3,1.9599999,
,,,-3.87600041E-3,2.0400000,,,,,-3.87600041E-3,2.0400000,
,,,-3.87200038E-3,2.0799999,,,,,-3.87200038E-3,1.9599999,
,,,-3.86800035E-3,2.0400000,,,,,-3.86800035E-3,2.0400000,
,,,-3.86400032E-3,2.0000000,,,,,-3.86400032E-3,1.9599999,
,,,-3.86000029E-3,2.0400000,,,,,-3.86000029E-3,2.0000000,
,,,-3.85600026E-3,2.0400000,,,,,-3.85600026E-3,1.9599999,
,,,-3.85200046E-3,2.0400000,,,,,-3.85200046E-3,2.0400000,
,,,-3.84800043E-3,2.0400000,,,,,-3.84800043E-3,1.9599999,
,,,-3.84400040E-3,2.0400000,,,,,-3.84400040E-3,2.0400000,
,,,-3.84000037E-3,2.0400000,,,,,-3.84000037E-3,1.9599999,
,,,-3.83600034E-3,2.0400000,,,,,-3.83600034E-3,2.0000000,
,,,-3.83200031E-3,2.0400000,,,,,-3.83200031E-3,1.9599999,
,,,-3.82800028E-3,2.0799999,,,,,-3.82800028E-3,2.0400000,
,,,-3.82400025E-3,2.0400000,,,,,-3.82400025E-3,1.9599999,
,,,-3.82000045E-3,2.0400000,,,,,-3.82000045E-3,2.0400000,
,,,-3.81600042E-3,2.0400000,,,,,-3.81600042E-3,1.9599999,
,,,-3.81200039E-3,2.0400000,,,,,-3.81200039E-3,2.0000000,
,,,-3.80800036E-3,2.0400000,,,,,-3.80800036E-3,1.9599999,
,,,-3.80400033E-3,2.0400000,,,,,-3.80400033E-3,2.0400000,
,,,-3.80000030E-3,2.0400000,,,,,-3.80000030E-3,1.9599999,
,,,-3.79600027E-3,2.0400000,,,,,-3.79600027E-3,2.0400000,
,,,-3.79200047E-3,2.0400000,,,,,-3.79200047E-3,1.9599999,
,,,-3.78800044E-3,2.0799999,,,,,-3.78800044E-3,2.0000000,
,,,-3.78400041E-3,2.0400000,,,,,-3.78400041E-3,2.0000000,
,,,-3.78000038E-3,2.0799999,,,,,-3.78000038E-3,2.0400000,
,,,-3.77600035E-3,2.0400000,,,,,-3.77600035E-3,1.9599999,
,,,-3.77200032E-3,2.0400000,,,,,-3.77200032E-3,2.0400000,
,,,-3.76800029E-3,2.0400000,,,,,-3.76800029E-3,1.9599999,
,,,-3.76400026E-3,2.0400000,,,,,-3.76400026E-3,2.0000000,
,,,-3.76000046E-3,2.0400000,,,,,-3.76000046E-3,1.9599999,
,,,-3.75600043E-3,2.0400000,,,,,-3.75600043E-3,2.0799999,
,,,-3.75200040E-3,2.0799999,,,,,-3.75200040E-3,1.9599999,
,,,-3.74800037E-3,2.0400000,,,,,-3.74800037E-3,2.0400000,
,,,-3.74400034E-3,2.0400000,,,,,-3.74400034E-3,1.9599999,
,,,-3.74000031E-3,2.0799999,,,,,-3.74000031E-3,2.0000000,
,,,-3.73600028E-3,2.0400000,,,,,-3.73600028E-3,1.9599999,
,,,-3.73200024E-3,2.0400000,,,,,-3.73200024E-3,2.0400000,
,,,-3.72800045E-3,2.0400000,,,,,-3.72800045E-3,1.9599999,
,,,-3.72400042E-3,2.0400000,,,,,-3.72400042E-3,2.0400000,
,,,-3.72000039E-3,2.0000000,,,,,-3.72000039E-3,1.9599999,
,,,-3.71600036E-3,2.0400000,,,,,-3.71600036E-3,2.0000000,
,,,-3.71200033E-3,2.0000000,,,,,-3.71200033E-3,2.0000000,
,,,-3.70800029E-3,2.0400000,,,,,-3.70800029E-3,2.0400000,
,,,-3.70400026E-3,2.0799999,,,,,-3.70400026E-3,1.9599999,
,,,-3.70000047E-3,2.0400000,,,,,-3.70000047E-3,2.0400000,
,,,-3.69600044E-3,2.0400000,,,,,-3.69600044E-3,1.9599999,
,,,-3.69200041E-3,2.0400000,,,,,-3.69200041E-3,2.0400000,
,,,-3.68800038E-3,2.0000000,,,,,-3.68800038E-3,2.0000000,
,,,-3.68400034E-3,2.0400000,,,,,-3.68400034E-3,2.0400000,
,,,-3.68000031E-3,2.0400000,,,,,-3.68000031E-3,1.9599999,
,,,-3.67600028E-3,2.0400000,,,,,-3.67600028E-3,2.0799999,
,,,-3.67200025E-3,2.0000000,,,,,-3.67200025E-3,1.9599999,
,,,-3.66800046E-3,2.0400000,,,,,-3.66800046E-3,2.0000000,
,,,-3.66400043E-3,2.0000000,,,,,-3.66400043E-3,1.9599999,
